R para Ciência de Dados (2ª edição) - 2 Visualização de dados
…
Uma variável é uma quantidade, qualidade ou propriedade que você pode medir.

Um valor é o estado de uma variável quando você a mede. O valor de uma variável pode mudar de medição para medição.

Uma observação é um conjunto de medições feitas em condições semelhantes (geralmente todas as medições em uma observação são feitas ao mesmo tempo e no mesmo objeto). Uma observação conterá vários valores, cada um associado a uma variável diferente. Às vezes, vamos nos referir a uma observação como um ponto de dados.

Dados tabulares são um conjunto de valores, cada um associado a uma variável e uma observação. Os dados tabulares estarão no formato tidy (arrumado) se cada valor estiver em sua própria “célula”, cada variável em sua própria coluna e cada observação em sua própria linha.

Neste contexto, uma variável refere-se a um atributo de todos os pinguins, e uma observação refere-se a todos os atributos de um único pinguim.

Digite o nome do data frame no console e o R mostrará uma visualização de seu conteúdo. Observe que aparece escrito tibble no topo desta visualização. No tidyverse, usamos data frames especiais chamados tibbles, dos quais você aprenderá mais em breve.

pinguins
#> # A tibble: 344 × 8
#>   especie           ilha      comprimento_bico profundidade_bico
#>   <fct>             <fct>                <dbl>             <dbl>
#> 1 Pinguim-de-adélia Torgersen             39.1              18.7
#> 2 Pinguim-de-adélia Torgersen             39.5              17.4
#> 3 Pinguim-de-adélia Torgersen             40.3              18  
#> 4 Pinguim-de-adélia Torgersen             NA                NA  
#> 5 Pinguim-de-adélia Torgersen             36.7              19.3
#> 6 Pinguim-de-adélia Torgersen             39.3              20.6
#> # ℹ 338 more rows
#> # ℹ 4 more variables: comprimento_nadadeira <int>, massa_corporal <int>, …
…
